module cli-tutor

go 1.17

require (
	github.com/charmbracelet/bubbles v0.15.0
	github.com/charmbracelet/bubbletea v0.23.2
	github.com/charmbracelet/lipgloss v0.7.1
	github.com/chzyer/readline v1.5.1
	github.com/lrstanley/bubblezone v0.0.0-20230303230241-08f906ff62a9
	github.com/muesli/termenv v0.15.1
	github.com/spf13/cobra v1.6.1
	github.com/yuin/goldmark v1.5.4
	golang.org/x/term v0.6.0
)

require (
	github.com/alecthomas/chroma v0.10.0 // indirect
	github.com/atotto/clipboard v0.1.4 // indirect
	github.com/aymanbagabas/go-osc52/v2 v2.0.1 // indirect
	github.com/aymerick/douceur v0.2.0 // indirect
	github.com/containerd/console v1.0.3 // indirect
	github.com/dlclark/regexp2 v1.8.1 // indirect
	github.com/gorilla/css v1.0.0 // indirect
	github.com/inconshreveable/mousetrap v1.1.0 // indirect
	github.com/mattn/go-localereader v0.0.1 // indirect
	github.com/microcosm-cc/bluemonday v1.0.23 // indirect
	github.com/muesli/ansi v0.0.0-20230307104941-78d3738a59f2 // indirect
	github.com/muesli/cancelreader v0.2.2 // indirect
	github.com/muesli/reflow v0.3.0 // indirect
	github.com/olekukonko/tablewriter v0.0.5 // indirect
	github.com/sahilm/fuzzy v0.1.0 // indirect
	github.com/spf13/pflag v1.0.5 // indirect
	github.com/yuin/goldmark-emoji v1.0.1 // indirect
	golang.org/x/net v0.8.0 // indirect
	golang.org/x/sync v0.1.0 // indirect
	golang.org/x/text v0.8.0 // indirect
)

require (
	github.com/charmbracelet/glamour v0.6.0
	github.com/lucasb-eyer/go-colorful v1.2.0 // indirect
	github.com/mattn/go-isatty v0.0.17 // indirect
	github.com/mattn/go-runewidth v0.0.14 // indirect
	github.com/rivo/uniseg v0.4.4 // indirect
	golang.org/x/sys v0.6.0 // indirect
)
